<svg xmlns="http://www.w3.org/2000/svg" xmlns:xlink="http://www.w3.org/1999/xlink" width="24" height="24" viewBox="0 0 24 24">
    <defs>
        <path id="a" d="M18.741 4.953L18.2 21.165a.94.94 0 0 1-.941.917H6.153a.94.94 0 0 1-.941-.917L4.67 4.953h14.07zm-9.93-2.541c0-.26.213-.47.471-.47h4.871c.259 0 .47.21.47.47v1.6H8.813v-1.6zm-7.34 2.54A.472.472 0 0 1 1 4.483c0-.258.212-.47.47-.47h6.4v-1.6C7.87 1.635 8.507 1 9.283 1h4.847c.777 0 1.412.635 1.412 1.412v1.6h6.4c.259 0 .47.212.47.47 0 .26-.211.47-.47.47h-2.259l-.54 16.236C19.117 22.2 18.27 23 17.258 23H6.153c-1.012 0-1.859-.8-1.882-1.812L3.729 4.953H1.471zM11.706 19.66c.259 0 .47-.212.47-.47V7.658a.472.472 0 0 0-.47-.47.472.472 0 0 0-.47.47v11.53c0 .258.211.47.47.47zm3.53 0c.258 0 .47-.212.47-.47V7.658a.472.472 0 0 0-.47-.47.472.472 0 0 0-.471.47v11.53c0 .258.211.47.47.47zm-7.06 0c.26 0 .471-.212.471-.47V7.658a.472.472 0 0 0-.47-.47.472.472 0 0 0-.471.47v11.53c0 .258.212.47.47.47z"/>
    </defs>
    <g fill="none" fill-rule="evenodd">
        <mask id="b" fill="#fff">
            <use xlink:href="#a"/>
        </mask>
        <use fill="#95989a" xlink:href="#a"/>
        <g fill="#95989a" mask="url(#b)">
            <path d="M0 0h24v24H0z"/>
        </g>
    </g>
</svg>
