<svg xmlns="http://www.w3.org/2000/svg" xmlns:xlink="http://www.w3.org/1999/xlink" width="24" height="24" viewBox="0 0 24 24">
    <defs>
        <path id="a" d="M8.105 8.377c-.398 0-.724-.31-.724-.688 0-.38.326-.689.724-.689h13.17c.4 0 .725.309.725.689 0 .379-.324.688-.724.688H8.106zM5.39 7c.399 0 .724.309.724.688 0 .38-.325.689-.724.689H2.725c-.4 0-.725-.31-.725-.69C2 7.31 2.325 7 2.725 7H5.39zm15.886 4.772c.399 0 .724.31.724.688 0 .379-.325.688-.724.688H8.106c-.4 0-.724-.309-.724-.688 0-.379.324-.688.724-.688h13.17zm-15.886 0c.399 0 .724.31.724.688 0 .379-.325.688-.724.688H2.725c-.4 0-.725-.309-.725-.688 0-.379.325-.688.725-.688H5.39zm15.886 4.772c.399 0 .724.31.724.687 0 .38-.325.689-.724.689H8.106c-.4 0-.724-.309-.724-.689 0-.378.324-.687.724-.687h13.17zm-15.886 0c.399 0 .724.31.724.687 0 .38-.325.689-.724.689H2.725c-.4 0-.725-.309-.725-.689 0-.378.325-.687.725-.687H5.39z"/>
    </defs>
    <g fill="none" fill-rule="evenodd">
        <mask id="b" fill="#fff">
            <use xlink:href="#a"/>
        </mask>
        <use fill="#000" xlink:href="#a"/>
        <g fill="#fff" mask="url(#b)">
            <path d="M0 0h24v24H0V0z"/>
        </g>
    </g>
</svg>
