<svg xmlns="http://www.w3.org/2000/svg" xmlns:xlink="http://www.w3.org/1999/xlink" width="1407" height="156" viewBox="0 0 1407 156">
    <defs>
        <path id="b" d="M0 100.695C228.482-16.185 461.315-30.737 698.5 57.039c237.185 87.776 470.018 102.328 698.5 43.656v45.602H0v-45.602z"/>
        <filter id="a" width="101.4%" height="113.7%" x="-.7%" y="-10.3%" filterUnits="objectBoundingBox">
            <feOffset dy="-5" in="SourceAlpha" result="shadowOffsetOuter1"/>
            <feGaussianBlur in="shadowOffsetOuter1" result="shadowBlurOuter1" stdDeviation="2.5"/>
            <feColorMatrix in="shadowBlurOuter1" values="0 0 0 0 0 0 0 0 0 0 0 0 0 0 0 0 0 0 0.154806386 0"/>
        </filter>
    </defs>
    <g fill="none" fill-rule="evenodd" transform="translate(5 9)">
        <use fill="#000" filter="url(#a)" xlink:href="#b"/>
        <use fill="#f5f5f5" xlink:href="#b"/>
    </g>
</svg>
